<?xml version="1.0" encoding="UTF-8" standalone="no"?>
<svg
   xmlns:dc="http://purl.org/dc/elements/1.1/"
   xmlns:cc="http://creativecommons.org/ns#"
   xmlns:rdf="http://www.w3.org/1999/02/22-rdf-syntax-ns#"
   xmlns:svg="http://www.w3.org/2000/svg"
   xmlns="http://www.w3.org/2000/svg"
   id="svg8"
   version="1.1"
   viewBox="0 0 1000 1000"
   height="1000"
   width="1000">
  <defs
     id="defs2" />
  <metadata
     id="metadata5">
    <rdf:RDF>
      <cc:Work
         rdf:about="">
        <dc:format>image/svg+xml</dc:format>
        <dc:type
           rdf:resource="http://purl.org/dc/dcmitype/StillImage" />
        <dc:title></dc:title>
      </cc:Work>
    </rdf:RDF>
  </metadata>
  <g
     transform="translate(0,-32.416677)"
     id="layer1">
    <path
       d="M 933.0127,782.41669 760.87622,774.47445 781.66003,945.53608 630.01643,863.69314 574.52113,1026.8321 473.40528,887.29847 352.62241,1010.2031 322.06155,840.61511 159.91363,898.94262 205.96071,732.88928 34.563125,715.0872 148.09796,585.45738 1.3981016,495.05164 159.93372,427.52013 66.987299,282.41669 239.12378,290.35892 218.33997,119.2973 369.98357,201.14023 425.47887,38.001274 526.59472,177.5349 647.37759,54.630285 677.93845,224.21826 840.08637,165.89075 794.03929,331.9441 965.43688,349.74618 851.90204,479.37599 998.6019,569.78174 840.06628,637.31325 Z"
       id="path815"
       style="opacity:1;fill:#ffdd55;fill-opacity:1;stroke:none;stroke-width:1.36598301;stroke-linecap:square;stroke-linejoin:round;stroke-miterlimit:4;stroke-dasharray:none;stroke-dashoffset:0;stroke-opacity:0.44210528;paint-order:markers fill stroke" />
    <circle
       r="288.72479"
       cy="535.85876"
       cx="498.27899"
       id="path817"
       style="opacity:1;fill:#ffcc00;fill-opacity:0.92779786;stroke:none;stroke-width:2.18248701;stroke-linecap:square;stroke-linejoin:round;stroke-miterlimit:4;stroke-dasharray:none;stroke-dashoffset:0;stroke-opacity:0.44210528;paint-order:markers fill stroke" />
  </g>
</svg>
